2024-12-18 23:50:07,517 INFO: Microblog startup [in /home/anna/All Project/app-flask-test/app/__init__.py:80]
2024-12-18 23:50:19,312 INFO: Microblog startup [in /home/anna/All Project/app-flask-test/app/__init__.py:80]
2024-12-18 23:50:34,040 INFO: Microblog startup [in /home/anna/All Project/app-flask-test/app/__init__.py:80]
2024-12-18 23:53:27,604 INFO: Microblog startup [in /home/anna/All Project/app-flask-test/app/__init__.py:80]
2024-12-19 15:48:28,176 INFO: Microblog startup [in /home/anna/All Project/app-flask-test/app/__init__.py:80]
2024-12-19 15:51:39,921 INFO: Microblog startup [in /home/anna/All Project/app-flask-test/app/__init__.py:80]
2024-12-19 15:52:22,141 INFO: Microblog startup [in /home/anna/All Project/app-flask-test/app/__init__.py:80]
2024-12-19 15:52:53,770 INFO: Microblog startup [in /home/anna/All Project/app-flask-test/app/__init__.py:80]
2024-12-19 20:42:41,690 INFO: Microblog startup [in /home/anna/All Project/app-flask-test/app/__init__.py:80]
2024-12-19 20:46:46,067 INFO: Microblog startup [in /home/anna/All Project/app-flask-test/app/__init__.py:80]
2024-12-19 20:47:11,213 INFO: Microblog startup [in /home/anna/All Project/app-flask-test/app/__init__.py:80]
2024-12-19 20:49:42,024 INFO: Microblog startup [in /home/anna/All Project/app-flask-test/app/__init__.py:80]
2024-12-19 21:21:18,116 INFO: Microblog startup [in /home/anna/All Project/app-flask-test/app/__init__.py:80]
2024-12-19 21:21:18,678 INFO: Microblog startup [in /home/anna/All Project/app-flask-test/app/__init__.py:80]
2024-12-19 21:22:51,569 INFO: Microblog startup [in /home/anna/All Project/app-flask-test/app/__init__.py:80]
2024-12-19 21:34:54,494 INFO: Microblog startup [in /home/anna/All Project/app-flask-test/app/__init__.py:80]
2024-12-19 21:45:37,485 INFO: Microblog startup [in /home/anna/All Project/app-flask-test/app/__init__.py:80]
2024-12-19 21:46:22,164 INFO: Microblog startup [in /home/anna/All Project/app-flask-test/app/__init__.py:80]
2024-12-19 21:47:56,670 INFO: Microblog startup [in /home/anna/All Project/app-flask-test/app/__init__.py:80]
2024-12-19 22:21:21,747 INFO: Microblog startup [in /home/anna/All Project/app-flask-test/app/__init__.py:80]
2024-12-19 22:23:00,495 INFO: Microblog startup [in /home/anna/All Project/app-flask-test/app/__init__.py:80]
2024-12-19 22:23:01,070 INFO: Microblog startup [in /home/anna/All Project/app-flask-test/app/__init__.py:80]
2024-12-19 22:23:56,392 INFO: Microblog startup [in /home/anna/All Project/app-flask-test/app/__init__.py:80]
2024-12-19 22:24:38,587 INFO: Microblog startup [in /home/anna/All Project/app-flask-test/app/__init__.py:80]
2024-12-19 22:26:42,782 INFO: Microblog startup [in /home/anna/All Project/app-flask-test/app/__init__.py:80]
2024-12-19 22:39:57,960 INFO: Microblog startup [in /home/anna/All Project/app-flask-test/app/__init__.py:80]
2024-12-19 22:41:09,839 INFO: Microblog startup [in /home/anna/All Project/app-flask-test/app/__init__.py:80]
2024-12-19 22:42:16,221 INFO: Microblog startup [in /home/anna/All Project/app-flask-test/app/__init__.py:80]
2024-12-19 22:44:38,276 INFO: Microblog startup [in /home/anna/All Project/app-flask-test/app/__init__.py:80]
2024-12-19 22:44:38,766 INFO: Microblog startup [in /home/anna/All Project/app-flask-test/app/__init__.py:80]
2024-12-19 23:13:00,438 INFO: Microblog startup [in /home/anna/All Project/app-flask-test/app/__init__.py:80]
2024-12-19 23:13:49,869 INFO: Microblog startup [in /home/anna/All Project/app-flask-test/app/__init__.py:80]
2024-12-19 23:13:50,355 INFO: Microblog startup [in /home/anna/All Project/app-flask-test/app/__init__.py:80]
2024-12-19 23:16:03,438 INFO: Microblog startup [in /home/anna/All Project/app-flask-test/app/__init__.py:80]
2024-12-19 23:16:35,417 INFO: Microblog startup [in /home/anna/All Project/app-flask-test/app/__init__.py:80]
2024-12-19 23:17:16,462 INFO: Microblog startup [in /home/anna/All Project/app-flask-test/app/__init__.py:80]
2024-12-19 23:17:49,429 INFO: Microblog startup [in /home/anna/All Project/app-flask-test/app/__init__.py:80]
2024-12-19 23:18:35,930 INFO: Microblog startup [in /home/anna/All Project/app-flask-test/app/__init__.py:80]
2024-12-19 23:20:52,334 INFO: Microblog startup [in /home/anna/All Project/app-flask-test/app/__init__.py:80]
2024-12-19 23:23:07,471 INFO: Microblog startup [in /home/anna/All Project/app-flask-test/app/__init__.py:80]
2024-12-19 23:23:24,707 INFO: Microblog startup [in /home/anna/All Project/app-flask-test/app/__init__.py:80]
2024-12-19 23:37:48,202 INFO: Microblog startup [in /home/anna/All Project/app-flask-test/app/__init__.py:80]
2024-12-19 23:38:03,809 INFO: Microblog startup [in /home/anna/All Project/app-flask-test/app/__init__.py:80]
2024-12-19 23:40:15,792 INFO: Microblog startup [in /home/anna/All Project/app-flask-test/app/__init__.py:80]
2024-12-19 23:42:03,246 INFO: Microblog startup [in /home/anna/All Project/app-flask-test/app/__init__.py:80]
2024-12-19 23:42:50,935 INFO: Microblog startup [in /home/anna/All Project/app-flask-test/app/__init__.py:80]
2024-12-19 23:43:04,187 INFO: Microblog startup [in /home/anna/All Project/app-flask-test/app/__init__.py:80]
2024-12-19 23:57:03,574 INFO: Microblog startup [in /home/anna/All Project/app-flask-test/app/__init__.py:80]
2024-12-19 23:59:41,213 INFO: Microblog startup [in /home/anna/All Project/app-flask-test/app/__init__.py:80]
2024-12-20 00:00:40,187 INFO: Microblog startup [in /home/anna/All Project/app-flask-test/app/__init__.py:80]
2024-12-20 00:00:40,669 INFO: Microblog startup [in /home/anna/All Project/app-flask-test/app/__init__.py:80]
2024-12-20 00:03:48,384 INFO: Microblog startup [in /home/anna/All Project/app-flask-test/app/__init__.py:80]
2024-12-20 00:07:15,441 INFO: Microblog startup [in /home/anna/All Project/app-flask-test/app/__init__.py:80]
2024-12-20 00:07:48,376 INFO: Microblog startup [in /home/anna/All Project/app-flask-test/app/__init__.py:80]
2024-12-20 00:07:48,866 INFO: Microblog startup [in /home/anna/All Project/app-flask-test/app/__init__.py:80]
2024-12-20 00:09:43,183 INFO: Microblog startup [in /home/anna/All Project/app-flask-test/app/__init__.py:80]
2024-12-20 00:11:46,188 INFO: Microblog startup [in /home/anna/All Project/app-flask-test/app/__init__.py:80]
2024-12-20 00:11:56,040 INFO: Microblog startup [in /home/anna/All Project/app-flask-test/app/__init__.py:80]
2024-12-20 00:12:39,697 INFO: Microblog startup [in /home/anna/All Project/app-flask-test/app/__init__.py:80]
2024-12-20 00:42:43,404 INFO: Microblog startup [in /home/anna/All Project/app-flask-test/app/__init__.py:80]
2024-12-20 00:43:16,801 INFO: Microblog startup [in /home/anna/All Project/app-flask-test/app/__init__.py:80]
2024-12-20 00:44:02,581 INFO: Microblog startup [in /home/anna/All Project/app-flask-test/app/__init__.py:80]
2024-12-20 00:58:00,583 INFO: Microblog startup [in /home/anna/All Project/app-flask-test/app/__init__.py:80]
2024-12-20 00:58:19,463 INFO: Microblog startup [in /home/anna/All Project/app-flask-test/app/__init__.py:80]
2024-12-20 00:58:23,793 INFO: Microblog startup [in /home/anna/All Project/app-flask-test/app/__init__.py:80]
2024-12-20 00:59:36,560 INFO: Microblog startup [in /home/anna/All Project/app-flask-test/app/__init__.py:80]
2024-12-20 00:59:39,947 INFO: Microblog startup [in /home/anna/All Project/app-flask-test/app/__init__.py:80]
2024-12-20 01:01:54,383 INFO: Microblog startup [in /home/anna/All Project/app-flask-test/app/__init__.py:80]
2024-12-20 01:06:48,045 INFO: Microblog startup [in /home/anna/All Project/app-flask-test/app/__init__.py:80]
2024-12-20 01:06:52,586 INFO: Microblog startup [in /home/anna/All Project/app-flask-test/app/__init__.py:80]
2024-12-20 01:07:30,970 INFO: Microblog startup [in /home/anna/All Project/app-flask-test/app/__init__.py:80]
2024-12-20 01:09:41,047 INFO: Microblog startup [in /home/anna/All Project/app-flask-test/app/__init__.py:80]
2024-12-20 01:10:06,514 INFO: Microblog startup [in /home/anna/All Project/app-flask-test/app/__init__.py:80]
2024-12-20 01:16:20,888 INFO: Microblog startup [in /home/anna/All Project/app-flask-test/app/__init__.py:80]
2024-12-20 01:16:29,832 INFO: Microblog startup [in /home/anna/All Project/app-flask-test/app/__init__.py:80]
2024-12-20 01:16:56,458 INFO: Microblog startup [in /home/anna/All Project/app-flask-test/app/__init__.py:80]
2024-12-20 01:17:25,054 INFO: Microblog startup [in /home/anna/All Project/app-flask-test/app/__init__.py:80]
2024-12-20 01:17:29,477 INFO: Microblog startup [in /home/anna/All Project/app-flask-test/app/__init__.py:80]
2024-12-20 01:19:00,061 INFO: Microblog startup [in /home/anna/All Project/app-flask-test/app/__init__.py:80]
2024-12-20 01:19:59,487 INFO: Microblog startup [in /home/anna/All Project/app-flask-test/app/__init__.py:80]
2024-12-20 01:20:22,395 INFO: Microblog startup [in /home/anna/All Project/app-flask-test/app/__init__.py:80]
2024-12-20 01:20:42,366 INFO: Microblog startup [in /home/anna/All Project/app-flask-test/app/__init__.py:80]
2024-12-20 01:20:49,800 INFO: Microblog startup [in /home/anna/All Project/app-flask-test/app/__init__.py:80]
2024-12-20 01:24:13,902 INFO: Microblog startup [in /home/anna/All Project/app-flask-test/app/__init__.py:80]
2024-12-20 01:24:35,509 INFO: Microblog startup [in /home/anna/All Project/app-flask-test/app/__init__.py:80]
2024-12-20 01:26:08,396 INFO: Microblog startup [in /home/anna/All Project/app-flask-test/app/__init__.py:80]
2024-12-20 01:26:46,132 INFO: Microblog startup [in /home/anna/All Project/app-flask-test/app/__init__.py:80]
2024-12-20 01:28:20,707 INFO: Microblog startup [in /home/anna/All Project/app-flask-test/app/__init__.py:80]
2024-12-20 01:29:14,542 INFO: Microblog startup [in /home/anna/All Project/app-flask-test/app/__init__.py:80]
2024-12-20 01:29:25,122 INFO: Microblog startup [in /home/anna/All Project/app-flask-test/app/__init__.py:80]
2024-12-31 22:40:34,964 INFO: Microblog startup [in /home/anna/All Project/app-flask-test/app/__init__.py:91]
2024-12-31 22:45:49,343 INFO: Microblog startup [in /home/anna/All Project/app-flask-test/app/__init__.py:91]
2024-12-31 22:48:13,866 INFO: Microblog startup [in /home/anna/All Project/app-flask-test/app/__init__.py:91]
