2024-12-11 04:31:50,280 INFO: Microblog startup [in /home/anna/All Project/app-flask-test/app/__init__.py:80]
2024-12-11 04:33:08,697 INFO: Microblog startup [in /home/anna/All Project/app-flask-test/app/__init__.py:80]
2024-12-11 04:33:31,601 INFO: Microblog startup [in /home/anna/All Project/app-flask-test/app/__init__.py:80]
2024-12-11 04:35:48,478 INFO: Microblog startup [in /home/anna/All Project/app-flask-test/app/__init__.py:80]
2024-12-11 04:37:44,116 INFO: Microblog startup [in /home/anna/All Project/app-flask-test/app/__init__.py:80]
2024-12-11 04:38:58,459 INFO: Microblog startup [in /home/anna/All Project/app-flask-test/app/__init__.py:80]
2024-12-11 04:39:12,289 INFO: Microblog startup [in /home/anna/All Project/app-flask-test/app/__init__.py:80]
2024-12-11 04:39:30,117 INFO: Microblog startup [in /home/anna/All Project/app-flask-test/app/__init__.py:80]
2024-12-11 04:40:49,490 INFO: Microblog startup [in /home/anna/All Project/app-flask-test/app/__init__.py:80]
2024-12-11 04:41:46,694 INFO: Microblog startup [in /home/anna/All Project/app-flask-test/app/__init__.py:80]
2024-12-11 04:42:30,768 INFO: Microblog startup [in /home/anna/All Project/app-flask-test/app/__init__.py:80]
2024-12-11 04:43:13,796 INFO: Microblog startup [in /home/anna/All Project/app-flask-test/app/__init__.py:80]
2024-12-11 04:43:40,491 INFO: Microblog startup [in /home/anna/All Project/app-flask-test/app/__init__.py:80]
2024-12-11 04:43:40,972 INFO: Microblog startup [in /home/anna/All Project/app-flask-test/app/__init__.py:80]
2024-12-11 04:44:00,811 INFO: Microblog startup [in /home/anna/All Project/app-flask-test/app/__init__.py:80]
2024-12-11 04:46:41,078 INFO: Microblog startup [in /home/anna/All Project/app-flask-test/app/__init__.py:80]
2024-12-11 04:49:19,683 INFO: Microblog startup [in /home/anna/All Project/app-flask-test/app/__init__.py:80]
2024-12-11 04:49:20,169 INFO: Microblog startup [in /home/anna/All Project/app-flask-test/app/__init__.py:80]
2024-12-11 04:50:39,845 INFO: Microblog startup [in /home/anna/All Project/app-flask-test/app/__init__.py:80]
2024-12-11 04:53:03,015 INFO: Microblog startup [in /home/anna/All Project/app-flask-test/app/__init__.py:80]
2024-12-11 13:59:21,143 INFO: Microblog startup [in /home/anna/All Project/app-flask-test/app/__init__.py:80]
2024-12-11 13:59:21,838 INFO: Microblog startup [in /home/anna/All Project/app-flask-test/app/__init__.py:80]
2024-12-11 14:07:40,014 INFO: Microblog startup [in /home/anna/All Project/app-flask-test/app/__init__.py:80]
2024-12-11 14:08:08,885 INFO: Microblog startup [in /home/anna/All Project/app-flask-test/app/__init__.py:80]
2024-12-11 14:18:06,798 INFO: Microblog startup [in /home/anna/All Project/app-flask-test/app/__init__.py:80]
2024-12-12 13:02:49,188 INFO: Microblog startup [in /home/anna/All Project/app-flask-test/app/__init__.py:80]
2024-12-12 13:02:49,750 INFO: Microblog startup [in /home/anna/All Project/app-flask-test/app/__init__.py:80]
2024-12-12 13:05:28,165 INFO: Microblog startup [in /home/anna/All Project/app-flask-test/app/__init__.py:80]
2024-12-12 13:09:57,627 INFO: Microblog startup [in /home/anna/All Project/app-flask-test/app/__init__.py:80]
2024-12-12 18:19:09,878 INFO: Microblog startup [in /home/anna/All Project/app-flask-test/app/__init__.py:80]
2024-12-12 18:50:35,679 INFO: Microblog startup [in /home/anna/All Project/app-flask-test/app/__init__.py:80]
2024-12-12 18:53:59,848 INFO: Microblog startup [in /home/anna/All Project/app-flask-test/app/__init__.py:80]
2024-12-12 18:59:53,569 INFO: Microblog startup [in /home/anna/All Project/app-flask-test/app/__init__.py:80]
2024-12-12 19:03:07,260 INFO: Microblog startup [in /home/anna/All Project/app-flask-test/app/__init__.py:80]
2024-12-12 19:03:23,138 INFO: Microblog startup [in /home/anna/All Project/app-flask-test/app/__init__.py:80]
2024-12-12 19:04:44,931 INFO: Microblog startup [in /home/anna/All Project/app-flask-test/app/__init__.py:80]
2024-12-12 19:05:11,929 INFO: Microblog startup [in /home/anna/All Project/app-flask-test/app/__init__.py:80]
2024-12-12 19:06:17,168 INFO: Microblog startup [in /home/anna/All Project/app-flask-test/app/__init__.py:80]
2024-12-12 19:06:34,753 INFO: Microblog startup [in /home/anna/All Project/app-flask-test/app/__init__.py:80]
2024-12-12 19:06:35,221 INFO: Microblog startup [in /home/anna/All Project/app-flask-test/app/__init__.py:80]
2024-12-12 19:07:37,444 INFO: Microblog startup [in /home/anna/All Project/app-flask-test/app/__init__.py:80]
2024-12-12 19:10:01,432 INFO: Microblog startup [in /home/anna/All Project/app-flask-test/app/__init__.py:80]
2024-12-12 21:12:02,160 INFO: Microblog startup [in /home/anna/All Project/app-flask-test/app/__init__.py:80]
2024-12-12 21:13:44,850 INFO: Microblog startup [in /home/anna/All Project/app-flask-test/app/__init__.py:80]
2024-12-12 21:14:28,910 INFO: Microblog startup [in /home/anna/All Project/app-flask-test/app/__init__.py:80]
2024-12-12 21:15:08,887 INFO: Microblog startup [in /home/anna/All Project/app-flask-test/app/__init__.py:80]
2024-12-12 21:17:13,647 INFO: Microblog startup [in /home/anna/All Project/app-flask-test/app/__init__.py:80]
2024-12-12 21:18:29,086 INFO: Microblog startup [in /home/anna/All Project/app-flask-test/app/__init__.py:80]
2024-12-12 21:20:02,555 INFO: Microblog startup [in /home/anna/All Project/app-flask-test/app/__init__.py:80]
2024-12-12 21:22:35,432 INFO: Microblog startup [in /home/anna/All Project/app-flask-test/app/__init__.py:80]
2024-12-12 21:26:54,648 INFO: Microblog startup [in /home/anna/All Project/app-flask-test/app/__init__.py:80]
2024-12-12 21:27:24,793 INFO: Microblog startup [in /home/anna/All Project/app-flask-test/app/__init__.py:80]
2024-12-12 21:28:07,039 INFO: Microblog startup [in /home/anna/All Project/app-flask-test/app/__init__.py:80]
2024-12-12 21:36:22,397 INFO: Microblog startup [in /home/anna/All Project/app-flask-test/app/__init__.py:80]
2024-12-12 21:37:01,504 INFO: Microblog startup [in /home/anna/All Project/app-flask-test/app/__init__.py:80]
2024-12-12 21:38:23,050 INFO: Microblog startup [in /home/anna/All Project/app-flask-test/app/__init__.py:80]
2024-12-12 21:38:44,706 INFO: Microblog startup [in /home/anna/All Project/app-flask-test/app/__init__.py:80]
2024-12-12 21:39:43,254 INFO: Microblog startup [in /home/anna/All Project/app-flask-test/app/__init__.py:80]
2024-12-12 21:39:43,823 INFO: Microblog startup [in /home/anna/All Project/app-flask-test/app/__init__.py:80]
2024-12-12 21:42:03,611 INFO: Microblog startup [in /home/anna/All Project/app-flask-test/app/__init__.py:80]
2024-12-12 21:44:28,141 INFO: Microblog startup [in /home/anna/All Project/app-flask-test/app/__init__.py:80]
2024-12-12 21:45:46,639 INFO: Microblog startup [in /home/anna/All Project/app-flask-test/app/__init__.py:80]
2024-12-12 21:46:19,605 INFO: Microblog startup [in /home/anna/All Project/app-flask-test/app/__init__.py:80]
2024-12-12 21:47:04,753 INFO: Microblog startup [in /home/anna/All Project/app-flask-test/app/__init__.py:80]
2024-12-12 21:48:06,005 INFO: Microblog startup [in /home/anna/All Project/app-flask-test/app/__init__.py:80]
2024-12-12 21:49:08,164 INFO: Microblog startup [in /home/anna/All Project/app-flask-test/app/__init__.py:80]
2024-12-12 21:49:56,234 INFO: Microblog startup [in /home/anna/All Project/app-flask-test/app/__init__.py:80]
2024-12-12 21:50:25,120 INFO: Microblog startup [in /home/anna/All Project/app-flask-test/app/__init__.py:80]
2024-12-12 21:52:49,270 INFO: Microblog startup [in /home/anna/All Project/app-flask-test/app/__init__.py:80]
2024-12-12 21:53:48,450 INFO: Microblog startup [in /home/anna/All Project/app-flask-test/app/__init__.py:80]
2024-12-12 21:55:34,053 INFO: Microblog startup [in /home/anna/All Project/app-flask-test/app/__init__.py:80]
2024-12-12 21:55:58,570 INFO: Microblog startup [in /home/anna/All Project/app-flask-test/app/__init__.py:80]
2024-12-13 00:43:49,761 INFO: Microblog startup [in /home/anna/All Project/app-flask-test/app/__init__.py:80]
2024-12-13 00:43:50,235 INFO: Microblog startup [in /home/anna/All Project/app-flask-test/app/__init__.py:80]
2024-12-13 01:41:07,040 INFO: Microblog startup [in /home/anna/All Project/app-flask-test/app/__init__.py:80]
2024-12-13 01:49:49,411 INFO: Microblog startup [in /home/anna/All Project/app-flask-test/app/__init__.py:80]
2024-12-13 01:50:25,380 INFO: Microblog startup [in /home/anna/All Project/app-flask-test/app/__init__.py:80]
2024-12-13 01:51:27,697 INFO: Microblog startup [in /home/anna/All Project/app-flask-test/app/__init__.py:80]
2024-12-13 01:53:02,299 INFO: Microblog startup [in /home/anna/All Project/app-flask-test/app/__init__.py:80]
2024-12-13 02:04:09,717 INFO: Microblog startup [in /home/anna/All Project/app-flask-test/app/__init__.py:80]
2024-12-13 02:04:26,550 INFO: Microblog startup [in /home/anna/All Project/app-flask-test/app/__init__.py:80]
2024-12-13 02:06:40,651 INFO: Microblog startup [in /home/anna/All Project/app-flask-test/app/__init__.py:80]
2024-12-13 02:10:37,715 INFO: Microblog startup [in /home/anna/All Project/app-flask-test/app/__init__.py:80]
2024-12-13 02:12:07,509 INFO: Microblog startup [in /home/anna/All Project/app-flask-test/app/__init__.py:80]
2024-12-13 02:22:09,861 INFO: Microblog startup [in /home/anna/All Project/app-flask-test/app/__init__.py:80]
2024-12-13 02:22:10,341 INFO: Microblog startup [in /home/anna/All Project/app-flask-test/app/__init__.py:80]
2024-12-13 02:23:33,941 INFO: Microblog startup [in /home/anna/All Project/app-flask-test/app/__init__.py:80]
2024-12-13 02:23:53,817 INFO: Microblog startup [in /home/anna/All Project/app-flask-test/app/__init__.py:80]
2024-12-13 02:30:44,030 INFO: Microblog startup [in /home/anna/All Project/app-flask-test/app/__init__.py:80]
2024-12-13 02:31:02,005 INFO: Microblog startup [in /home/anna/All Project/app-flask-test/app/__init__.py:80]
2024-12-13 02:37:59,839 INFO: Microblog startup [in /home/anna/All Project/app-flask-test/app/__init__.py:80]
2024-12-13 02:39:28,799 INFO: Microblog startup [in /home/anna/All Project/app-flask-test/app/__init__.py:80]
2024-12-13 02:41:57,948 INFO: Microblog startup [in /home/anna/All Project/app-flask-test/app/__init__.py:80]
