2025-03-07 18:50:09,918 INFO: Microblog startup [in /home/anna/All Project/app-flask-test/app/__init__.py:80]
2025-03-07 19:01:11,783 INFO: Microblog startup [in /home/anna/All Project/app-flask-test/app/__init__.py:80]
2025-03-07 19:01:57,998 INFO: Microblog startup [in /home/anna/All Project/app-flask-test/app/__init__.py:80]
2025-03-07 19:03:22,542 INFO: Microblog startup [in /home/anna/All Project/app-flask-test/app/__init__.py:80]
2025-03-07 19:04:06,718 INFO: Microblog startup [in /home/anna/All Project/app-flask-test/app/__init__.py:80]
2025-03-07 19:04:41,769 INFO: Microblog startup [in /home/anna/All Project/app-flask-test/app/__init__.py:80]
2025-03-07 19:06:25,536 INFO: Microblog startup [in /home/anna/All Project/app-flask-test/app/__init__.py:80]
2025-03-07 19:08:19,332 INFO: Microblog startup [in /home/anna/All Project/app-flask-test/app/__init__.py:80]
2025-03-07 19:09:24,715 INFO: Microblog startup [in /home/anna/All Project/app-flask-test/app/__init__.py:80]
2025-03-07 19:10:22,101 INFO: Microblog startup [in /home/anna/All Project/app-flask-test/app/__init__.py:80]
2025-03-07 19:11:40,560 INFO: Microblog startup [in /home/anna/All Project/app-flask-test/app/__init__.py:80]
2025-03-07 19:17:21,336 INFO: Microblog startup [in /home/anna/All Project/app-flask-test/app/__init__.py:80]
2025-03-07 19:20:42,855 INFO: Microblog startup [in /home/anna/All Project/app-flask-test/app/__init__.py:80]
2025-03-07 19:21:25,090 INFO: Microblog startup [in /home/anna/All Project/app-flask-test/app/__init__.py:80]
2025-03-07 19:21:48,130 INFO: Microblog startup [in /home/anna/All Project/app-flask-test/app/__init__.py:80]
2025-03-07 19:22:11,152 INFO: Microblog startup [in /home/anna/All Project/app-flask-test/app/__init__.py:80]
2025-03-07 19:22:54,381 INFO: Microblog startup [in /home/anna/All Project/app-flask-test/app/__init__.py:80]
2025-03-07 19:30:46,641 INFO: Microblog startup [in /home/anna/All Project/app-flask-test/app/__init__.py:80]
2025-03-07 19:32:15,359 INFO: Microblog startup [in /home/anna/All Project/app-flask-test/app/__init__.py:80]
2025-03-07 19:32:47,474 INFO: Microblog startup [in /home/anna/All Project/app-flask-test/app/__init__.py:80]
2025-03-07 19:35:33,764 INFO: Microblog startup [in /home/anna/All Project/app-flask-test/app/__init__.py:80]
2025-03-07 19:38:38,261 INFO: Microblog startup [in /home/anna/All Project/app-flask-test/app/__init__.py:80]
2025-03-07 19:39:37,525 INFO: Microblog startup [in /home/anna/All Project/app-flask-test/app/__init__.py:80]
2025-03-07 19:40:39,906 INFO: Microblog startup [in /home/anna/All Project/app-flask-test/app/__init__.py:80]
2025-03-07 19:40:58,864 INFO: Microblog startup [in /home/anna/All Project/app-flask-test/app/__init__.py:80]
2025-03-07 19:41:18,850 INFO: Microblog startup [in /home/anna/All Project/app-flask-test/app/__init__.py:80]
2025-03-07 19:44:05,020 INFO: Microblog startup [in /home/anna/All Project/app-flask-test/app/__init__.py:80]
2025-03-07 19:45:37,519 INFO: Microblog startup [in /home/anna/All Project/app-flask-test/app/__init__.py:80]
2025-03-07 19:45:54,523 INFO: Microblog startup [in /home/anna/All Project/app-flask-test/app/__init__.py:80]
2025-03-07 19:46:47,786 INFO: Microblog startup [in /home/anna/All Project/app-flask-test/app/__init__.py:80]
2025-03-07 19:48:01,325 INFO: Microblog startup [in /home/anna/All Project/app-flask-test/app/__init__.py:80]
2025-03-07 19:48:41,551 INFO: Microblog startup [in /home/anna/All Project/app-flask-test/app/__init__.py:80]
2025-03-07 19:49:18,643 INFO: Microblog startup [in /home/anna/All Project/app-flask-test/app/__init__.py:80]
2025-03-07 19:49:38,583 INFO: Microblog startup [in /home/anna/All Project/app-flask-test/app/__init__.py:80]
2025-03-07 19:50:17,860 INFO: Microblog startup [in /home/anna/All Project/app-flask-test/app/__init__.py:80]
2025-03-07 19:50:49,987 INFO: Microblog startup [in /home/anna/All Project/app-flask-test/app/__init__.py:80]
2025-03-07 19:52:35,715 INFO: Microblog startup [in /home/anna/All Project/app-flask-test/app/__init__.py:80]
2025-03-07 19:53:13,841 INFO: Microblog startup [in /home/anna/All Project/app-flask-test/app/__init__.py:80]
2025-03-07 19:53:24,771 INFO: Microblog startup [in /home/anna/All Project/app-flask-test/app/__init__.py:80]
2025-03-07 19:53:49,812 INFO: Microblog startup [in /home/anna/All Project/app-flask-test/app/__init__.py:80]
2025-03-07 19:55:39,738 INFO: Microblog startup [in /home/anna/All Project/app-flask-test/app/__init__.py:80]
2025-03-07 19:56:29,960 INFO: Microblog startup [in /home/anna/All Project/app-flask-test/app/__init__.py:80]
2025-03-07 19:57:08,151 INFO: Microblog startup [in /home/anna/All Project/app-flask-test/app/__init__.py:80]
2025-03-07 20:00:25,797 INFO: Microblog startup [in /home/anna/All Project/app-flask-test/app/__init__.py:80]
2025-03-07 20:02:33,630 INFO: Microblog startup [in /home/anna/All Project/app-flask-test/app/__init__.py:80]
2025-03-07 20:04:14,363 INFO: Microblog startup [in /home/anna/All Project/app-flask-test/app/__init__.py:80]
2025-03-07 20:05:02,577 INFO: Microblog startup [in /home/anna/All Project/app-flask-test/app/__init__.py:80]
2025-03-07 20:09:15,739 INFO: Microblog startup [in /home/anna/All Project/app-flask-test/app/__init__.py:80]
2025-03-07 20:14:22,805 INFO: Microblog startup [in /home/anna/All Project/app-flask-test/app/__init__.py:80]
2025-03-07 20:15:59,645 INFO: Microblog startup [in /home/anna/All Project/app-flask-test/app/__init__.py:80]
2025-03-07 20:16:59,970 INFO: Microblog startup [in /home/anna/All Project/app-flask-test/app/__init__.py:80]
2025-03-07 20:22:36,944 INFO: Microblog startup [in /home/anna/All Project/app-flask-test/app/__init__.py:80]
2025-03-07 20:25:16,338 INFO: Microblog startup [in /home/anna/All Project/app-flask-test/app/__init__.py:80]
2025-03-07 20:43:07,116 INFO: Microblog startup [in /home/anna/All Project/app-flask-test/app/__init__.py:80]
2025-03-07 20:43:29,168 INFO: Microblog startup [in /home/anna/All Project/app-flask-test/app/__init__.py:80]
2025-03-07 20:43:56,233 INFO: Microblog startup [in /home/anna/All Project/app-flask-test/app/__init__.py:80]
2025-03-07 20:45:01,550 INFO: Microblog startup [in /home/anna/All Project/app-flask-test/app/__init__.py:80]
2025-03-07 20:45:41,677 INFO: Microblog startup [in /home/anna/All Project/app-flask-test/app/__init__.py:80]
2025-03-07 20:46:38,029 INFO: Microblog startup [in /home/anna/All Project/app-flask-test/app/__init__.py:80]
2025-03-07 21:01:03,293 INFO: Microblog startup [in /home/anna/All Project/app-flask-test/app/__init__.py:80]
2025-03-07 21:01:32,418 INFO: Microblog startup [in /home/anna/All Project/app-flask-test/app/__init__.py:80]
2025-03-07 21:03:25,257 INFO: Microblog startup [in /home/anna/All Project/app-flask-test/app/__init__.py:80]
2025-03-07 21:04:43,922 INFO: Microblog startup [in /home/anna/All Project/app-flask-test/app/__init__.py:80]
2025-03-07 21:08:34,652 INFO: Microblog startup [in /home/anna/All Project/app-flask-test/app/__init__.py:80]
2025-03-07 21:09:38,182 INFO: Microblog startup [in /home/anna/All Project/app-flask-test/app/__init__.py:80]
2025-03-07 21:10:42,636 INFO: Microblog startup [in /home/anna/All Project/app-flask-test/app/__init__.py:80]
2025-03-07 21:17:36,355 INFO: Microblog startup [in /home/anna/All Project/app-flask-test/app/__init__.py:80]
2025-03-07 21:18:03,476 INFO: Microblog startup [in /home/anna/All Project/app-flask-test/app/__init__.py:80]
2025-03-07 21:18:28,518 INFO: Microblog startup [in /home/anna/All Project/app-flask-test/app/__init__.py:80]
2025-03-07 21:19:03,560 INFO: Microblog startup [in /home/anna/All Project/app-flask-test/app/__init__.py:80]
2025-03-07 21:19:39,781 INFO: Microblog startup [in /home/anna/All Project/app-flask-test/app/__init__.py:80]
2025-03-07 21:53:15,522 INFO: Microblog startup [in /home/anna/All Project/app-flask-test/app/__init__.py:80]
2025-03-07 21:56:51,716 INFO: Microblog startup [in /home/anna/All Project/app-flask-test/app/__init__.py:80]
2025-03-07 22:01:35,387 INFO: Microblog startup [in /home/anna/All Project/app-flask-test/app/__init__.py:80]
2025-03-07 22:06:00,954 INFO: Microblog startup [in /home/anna/All Project/app-flask-test/app/__init__.py:80]
2025-03-07 22:06:39,278 INFO: Microblog startup [in /home/anna/All Project/app-flask-test/app/__init__.py:80]
2025-03-07 22:06:40,036 INFO: Microblog startup [in /home/anna/All Project/app-flask-test/app/__init__.py:80]
2025-03-07 22:10:44,294 INFO: Microblog startup [in /home/anna/All Project/app-flask-test/app/__init__.py:80]
2025-03-07 22:13:31,709 INFO: Microblog startup [in /home/anna/All Project/app-flask-test/app/__init__.py:80]
2025-03-07 22:27:22,781 INFO: Microblog startup [in /home/anna/All Project/app-flask-test/app/__init__.py:80]
2025-03-07 22:33:47,416 INFO: Microblog startup [in /home/anna/All Project/app-flask-test/app/__init__.py:80]
2025-03-07 22:34:53,964 INFO: Microblog startup [in /home/anna/All Project/app-flask-test/app/__init__.py:80]
2025-03-07 22:36:11,125 INFO: Microblog startup [in /home/anna/All Project/app-flask-test/app/__init__.py:80]
2025-03-07 22:36:23,597 INFO: Microblog startup [in /home/anna/All Project/app-flask-test/app/__init__.py:80]
2025-03-07 22:36:48,171 INFO: Microblog startup [in /home/anna/All Project/app-flask-test/app/__init__.py:80]
2025-03-07 22:37:01,172 INFO: Microblog startup [in /home/anna/All Project/app-flask-test/app/__init__.py:80]
2025-03-07 22:37:10,405 INFO: Microblog startup [in /home/anna/All Project/app-flask-test/app/__init__.py:80]
2025-03-07 22:37:15,421 INFO: Microblog startup [in /home/anna/All Project/app-flask-test/app/__init__.py:80]
2025-03-07 22:37:30,312 INFO: Microblog startup [in /home/anna/All Project/app-flask-test/app/__init__.py:80]
2025-03-07 22:37:31,029 INFO: Microblog startup [in /home/anna/All Project/app-flask-test/app/__init__.py:80]
2025-03-07 22:47:06,963 INFO: Microblog startup [in /home/anna/All Project/app-flask-test/app/__init__.py:80]
2025-03-07 22:50:51,110 INFO: Microblog startup [in /home/anna/All Project/app-flask-test/app/__init__.py:80]
2025-03-07 22:51:46,609 INFO: Microblog startup [in /home/anna/All Project/app-flask-test/app/__init__.py:80]
