2025-01-01 03:03:29,158 INFO: Microblog startup [in /home/anna/All Project/app-flask-test/app/__init__.py:80]
2025-01-01 03:03:29,789 INFO: Microblog startup [in /home/anna/All Project/app-flask-test/app/__init__.py:80]
2025-01-01 16:31:49,116 INFO: Microblog startup [in /home/anna/All Project/app-flask-test/app/__init__.py:80]
2025-01-01 16:31:50,167 INFO: Microblog startup [in /home/anna/All Project/app-flask-test/app/__init__.py:80]
2025-01-01 16:59:15,336 INFO: Microblog startup [in /home/anna/All Project/app-flask-test/app/__init__.py:80]
2025-01-01 16:59:15,980 INFO: Microblog startup [in /home/anna/All Project/app-flask-test/app/__init__.py:80]
2025-01-01 17:59:36,278 INFO: Microblog startup [in /home/anna/All Project/app-flask-test/app/__init__.py:80]
2025-01-01 17:59:36,920 INFO: Microblog startup [in /home/anna/All Project/app-flask-test/app/__init__.py:80]
2025-01-01 18:00:13,176 INFO: Microblog startup [in /home/anna/All Project/app-flask-test/app/__init__.py:80]
2025-01-01 18:00:47,367 INFO: Microblog startup [in /home/anna/All Project/app-flask-test/app/__init__.py:80]
2025-01-01 18:03:03,494 INFO: Microblog startup [in /home/anna/All Project/app-flask-test/app/__init__.py:80]
2025-01-01 18:04:51,768 INFO: Microblog startup [in /home/anna/All Project/app-flask-test/app/__init__.py:80]
2025-01-01 18:06:30,962 INFO: Microblog startup [in /home/anna/All Project/app-flask-test/app/__init__.py:80]
2025-01-01 18:06:31,588 INFO: Microblog startup [in /home/anna/All Project/app-flask-test/app/__init__.py:80]
2025-01-06 13:22:29,099 INFO: Microblog startup [in /home/anna/All Project/app-flask-test/app/__init__.py:80]
2025-01-06 13:22:29,997 INFO: Microblog startup [in /home/anna/All Project/app-flask-test/app/__init__.py:80]
2025-01-06 13:25:55,789 INFO: Microblog startup [in /home/anna/All Project/app-flask-test/app/__init__.py:80]
2025-01-06 13:25:57,005 INFO: Microblog startup [in /home/anna/All Project/app-flask-test/app/__init__.py:80]
2025-01-06 13:27:25,045 INFO: Microblog startup [in /home/anna/All Project/app-flask-test/app/__init__.py:80]
2025-01-06 13:27:43,539 INFO: Microblog startup [in /home/anna/All Project/app-flask-test/app/__init__.py:80]
2025-01-06 13:28:39,121 INFO: Microblog startup [in /home/anna/All Project/app-flask-test/app/__init__.py:80]
2025-01-06 13:33:33,058 INFO: Microblog startup [in /home/anna/All Project/app-flask-test/app/__init__.py:80]
2025-01-06 13:33:43,570 INFO: Microblog startup [in /home/anna/All Project/app-flask-test/app/__init__.py:80]
2025-01-06 13:34:40,724 INFO: Microblog startup [in /home/anna/All Project/app-flask-test/app/__init__.py:80]
2025-01-06 13:34:48,054 INFO: Microblog startup [in /home/anna/All Project/app-flask-test/app/__init__.py:80]
2025-01-06 13:37:13,394 INFO: Microblog startup [in /home/anna/All Project/app-flask-test/app/__init__.py:80]
2025-01-06 13:39:08,054 INFO: Microblog startup [in /home/anna/All Project/app-flask-test/app/__init__.py:80]
2025-01-06 13:39:40,976 INFO: Microblog startup [in /home/anna/All Project/app-flask-test/app/__init__.py:80]
2025-01-06 13:40:20,561 INFO: Microblog startup [in /home/anna/All Project/app-flask-test/app/__init__.py:80]
2025-01-06 13:40:28,827 INFO: Microblog startup [in /home/anna/All Project/app-flask-test/app/__init__.py:80]
2025-01-06 13:40:29,506 INFO: Microblog startup [in /home/anna/All Project/app-flask-test/app/__init__.py:80]
2025-01-06 13:48:10,321 INFO: Microblog startup [in /home/anna/All Project/app-flask-test/app/__init__.py:80]
2025-01-06 13:48:31,854 INFO: Microblog startup [in /home/anna/All Project/app-flask-test/app/__init__.py:80]
2025-01-06 14:19:27,726 INFO: Microblog startup [in /home/anna/All Project/app-flask-test/app/__init__.py:80]
2025-01-06 15:02:41,750 INFO: Microblog startup [in /home/anna/All Project/app-flask-test/app/__init__.py:80]
2025-01-06 15:07:16,472 INFO: Microblog startup [in /home/anna/All Project/app-flask-test/app/__init__.py:80]
2025-01-06 15:08:09,087 INFO: Microblog startup [in /home/anna/All Project/app-flask-test/app/__init__.py:80]
2025-01-06 15:08:40,175 INFO: Microblog startup [in /home/anna/All Project/app-flask-test/app/__init__.py:80]
2025-01-06 15:22:38,399 INFO: Microblog startup [in /home/anna/All Project/app-flask-test/app/__init__.py:80]
2025-01-06 15:22:39,035 INFO: Microblog startup [in /home/anna/All Project/app-flask-test/app/__init__.py:80]
2025-01-06 15:24:13,984 INFO: Microblog startup [in /home/anna/All Project/app-flask-test/app/__init__.py:80]
2025-01-06 15:24:14,578 INFO: Microblog startup [in /home/anna/All Project/app-flask-test/app/__init__.py:80]
2025-01-06 16:17:50,946 INFO: Microblog startup [in /home/anna/All Project/app-flask-test/app/__init__.py:80]
2025-01-06 16:18:57,298 INFO: Microblog startup [in /home/anna/All Project/app-flask-test/app/__init__.py:80]
2025-01-06 16:22:24,717 INFO: Microblog startup [in /home/anna/All Project/app-flask-test/app/__init__.py:80]
2025-01-06 16:22:54,881 INFO: Microblog startup [in /home/anna/All Project/app-flask-test/app/__init__.py:80]
2025-01-06 16:23:52,238 INFO: Microblog startup [in /home/anna/All Project/app-flask-test/app/__init__.py:80]
2025-01-06 16:24:48,546 INFO: Microblog startup [in /home/anna/All Project/app-flask-test/app/__init__.py:80]
2025-01-06 16:25:14,622 INFO: Microblog startup [in /home/anna/All Project/app-flask-test/app/__init__.py:80]
2025-01-06 16:25:24,507 INFO: Microblog startup [in /home/anna/All Project/app-flask-test/app/__init__.py:80]
2025-01-06 16:25:46,547 INFO: Microblog startup [in /home/anna/All Project/app-flask-test/app/__init__.py:80]
2025-01-06 16:27:14,239 INFO: Microblog startup [in /home/anna/All Project/app-flask-test/app/__init__.py:80]
2025-01-06 16:30:45,932 INFO: Microblog startup [in /home/anna/All Project/app-flask-test/app/__init__.py:80]
2025-01-06 16:32:55,787 INFO: Microblog startup [in /home/anna/All Project/app-flask-test/app/__init__.py:80]
2025-01-06 16:50:11,968 INFO: Microblog startup [in /home/anna/All Project/app-flask-test/app/__init__.py:80]
2025-01-06 16:53:04,012 INFO: Microblog startup [in /home/anna/All Project/app-flask-test/app/__init__.py:80]
2025-01-06 17:27:06,499 INFO: Microblog startup [in /home/anna/All Project/app-flask-test/app/__init__.py:80]
2025-01-06 17:30:57,966 INFO: Microblog startup [in /home/anna/All Project/app-flask-test/app/__init__.py:80]
2025-01-06 17:31:25,979 INFO: Microblog startup [in /home/anna/All Project/app-flask-test/app/__init__.py:80]
2025-01-06 17:32:24,253 INFO: Microblog startup [in /home/anna/All Project/app-flask-test/app/__init__.py:80]
2025-01-06 17:33:18,411 INFO: Microblog startup [in /home/anna/All Project/app-flask-test/app/__init__.py:80]
2025-01-06 17:36:01,456 INFO: Microblog startup [in /home/anna/All Project/app-flask-test/app/__init__.py:80]
2025-01-06 17:36:21,447 INFO: Microblog startup [in /home/anna/All Project/app-flask-test/app/__init__.py:80]
2025-01-06 17:37:19,576 INFO: Microblog startup [in /home/anna/All Project/app-flask-test/app/__init__.py:80]
2025-01-06 17:38:45,125 INFO: Microblog startup [in /home/anna/All Project/app-flask-test/app/__init__.py:80]
2025-01-06 17:39:01,001 INFO: Microblog startup [in /home/anna/All Project/app-flask-test/app/__init__.py:80]
2025-01-06 17:39:27,048 INFO: Microblog startup [in /home/anna/All Project/app-flask-test/app/__init__.py:80]
2025-01-06 17:40:00,167 INFO: Microblog startup [in /home/anna/All Project/app-flask-test/app/__init__.py:80]
2025-01-06 17:41:19,890 INFO: Microblog startup [in /home/anna/All Project/app-flask-test/app/__init__.py:80]
2025-01-06 17:45:46,063 INFO: Microblog startup [in /home/anna/All Project/app-flask-test/app/__init__.py:80]
2025-01-06 17:46:36,182 INFO: Microblog startup [in /home/anna/All Project/app-flask-test/app/__init__.py:80]
2025-01-06 17:46:53,099 INFO: Microblog startup [in /home/anna/All Project/app-flask-test/app/__init__.py:80]
2025-01-06 17:58:51,091 INFO: Microblog startup [in /home/anna/All Project/app-flask-test/app/__init__.py:80]
2025-01-06 17:59:53,410 INFO: Microblog startup [in /home/anna/All Project/app-flask-test/app/__init__.py:80]
2025-01-06 18:00:18,345 INFO: Microblog startup [in /home/anna/All Project/app-flask-test/app/__init__.py:80]
2025-01-06 18:01:01,611 INFO: Microblog startup [in /home/anna/All Project/app-flask-test/app/__init__.py:80]
2025-01-06 18:01:01,954 INFO: Microblog startup [in /home/anna/All Project/app-flask-test/app/__init__.py:80]
2025-01-06 18:01:40,072 INFO: Microblog startup [in /home/anna/All Project/app-flask-test/app/__init__.py:80]
2025-01-06 18:02:22,272 INFO: Microblog startup [in /home/anna/All Project/app-flask-test/app/__init__.py:80]
2025-01-06 18:02:22,439 INFO: Microblog startup [in /home/anna/All Project/app-flask-test/app/__init__.py:80]
2025-01-06 18:02:30,786 INFO: Microblog startup [in /home/anna/All Project/app-flask-test/app/__init__.py:80]
2025-01-06 18:02:48,665 INFO: Microblog startup [in /home/anna/All Project/app-flask-test/app/__init__.py:80]
2025-01-06 18:03:59,670 INFO: Microblog startup [in /home/anna/All Project/app-flask-test/app/__init__.py:80]
2025-01-06 18:04:00,176 INFO: Microblog startup [in /home/anna/All Project/app-flask-test/app/__init__.py:80]
2025-01-06 18:04:20,348 INFO: Microblog startup [in /home/anna/All Project/app-flask-test/app/__init__.py:80]
2025-01-06 18:04:41,106 INFO: Microblog startup [in /home/anna/All Project/app-flask-test/app/__init__.py:80]
2025-01-06 18:04:41,725 INFO: Microblog startup [in /home/anna/All Project/app-flask-test/app/__init__.py:80]
2025-01-06 18:14:01,861 INFO: Microblog startup [in /home/anna/All Project/app-flask-test/app/__init__.py:80]
2025-01-06 18:14:04,991 INFO: Microblog startup [in /home/anna/All Project/app-flask-test/app/__init__.py:80]
2025-01-06 18:21:16,082 INFO: Microblog startup [in /home/anna/All Project/app-flask-test/app/__init__.py:80]
2025-01-06 18:22:14,476 INFO: Microblog startup [in /home/anna/All Project/app-flask-test/app/__init__.py:80]
2025-01-06 18:23:43,116 INFO: Microblog startup [in /home/anna/All Project/app-flask-test/app/__init__.py:80]
2025-01-06 18:24:18,306 INFO: Microblog startup [in /home/anna/All Project/app-flask-test/app/__init__.py:80]
