2024-12-13 02:42:38,059 INFO: Microblog startup [in /home/anna/All Project/app-flask-test/app/__init__.py:80]
2024-12-13 02:43:37,376 INFO: Microblog startup [in /home/anna/All Project/app-flask-test/app/__init__.py:80]
2024-12-13 02:45:06,980 INFO: Microblog startup [in /home/anna/All Project/app-flask-test/app/__init__.py:80]
2024-12-13 17:43:09,791 INFO: Microblog startup [in /home/anna/All Project/app-flask-test/app/__init__.py:80]
2024-12-13 17:45:14,624 INFO: Microblog startup [in /home/anna/All Project/app-flask-test/app/__init__.py:80]
2024-12-13 17:50:14,672 INFO: Microblog startup [in /home/anna/All Project/app-flask-test/app/__init__.py:80]
2024-12-13 17:51:14,040 INFO: Microblog startup [in /home/anna/All Project/app-flask-test/app/__init__.py:80]
2024-12-13 17:52:50,704 INFO: Microblog startup [in /home/anna/All Project/app-flask-test/app/__init__.py:80]
2024-12-13 17:52:51,528 INFO: Microblog startup [in /home/anna/All Project/app-flask-test/app/__init__.py:80]
2024-12-13 17:58:08,754 INFO: Microblog startup [in /home/anna/All Project/app-flask-test/app/__init__.py:80]
2024-12-13 17:58:09,401 INFO: Microblog startup [in /home/anna/All Project/app-flask-test/app/__init__.py:80]
2024-12-13 18:02:04,010 INFO: Microblog startup [in /home/anna/All Project/app-flask-test/app/__init__.py:80]
2024-12-13 18:02:04,820 INFO: Microblog startup [in /home/anna/All Project/app-flask-test/app/__init__.py:80]
2024-12-13 18:13:07,868 INFO: Microblog startup [in /home/anna/All Project/app-flask-test/app/__init__.py:80]
2024-12-13 18:13:08,584 INFO: Microblog startup [in /home/anna/All Project/app-flask-test/app/__init__.py:80]
2024-12-13 21:34:16,568 INFO: Microblog startup [in /home/anna/All Project/app-flask-test/app/__init__.py:80]
2024-12-13 21:38:23,684 INFO: Microblog startup [in /home/anna/All Project/app-flask-test/app/__init__.py:80]
2024-12-13 21:57:21,795 INFO: Microblog startup [in /home/anna/All Project/app-flask-test/app/__init__.py:80]
2024-12-13 21:57:33,059 INFO: Microblog startup [in /home/anna/All Project/app-flask-test/app/__init__.py:80]
2024-12-13 21:57:33,535 INFO: Microblog startup [in /home/anna/All Project/app-flask-test/app/__init__.py:80]
2024-12-13 21:58:50,974 INFO: Microblog startup [in /home/anna/All Project/app-flask-test/app/__init__.py:80]
2024-12-13 22:00:38,967 INFO: Microblog startup [in /home/anna/All Project/app-flask-test/app/__init__.py:80]
2024-12-13 22:09:47,929 INFO: Microblog startup [in /home/anna/All Project/app-flask-test/app/__init__.py:80]
2024-12-13 22:09:48,391 INFO: Microblog startup [in /home/anna/All Project/app-flask-test/app/__init__.py:80]
2024-12-13 22:30:24,969 INFO: Microblog startup [in /home/anna/All Project/app-flask-test/app/__init__.py:80]
2024-12-13 22:33:09,267 INFO: Microblog startup [in /home/anna/All Project/app-flask-test/app/__init__.py:80]
2024-12-13 22:37:47,786 INFO: Microblog startup [in /home/anna/All Project/app-flask-test/app/__init__.py:80]
2024-12-13 22:38:24,763 INFO: Microblog startup [in /home/anna/All Project/app-flask-test/app/__init__.py:80]
2024-12-13 22:38:25,231 INFO: Microblog startup [in /home/anna/All Project/app-flask-test/app/__init__.py:80]
2024-12-13 22:39:09,955 INFO: Microblog startup [in /home/anna/All Project/app-flask-test/app/__init__.py:80]
2024-12-13 22:39:20,047 INFO: Microblog startup [in /home/anna/All Project/app-flask-test/app/__init__.py:80]
2024-12-13 22:42:02,485 INFO: Microblog startup [in /home/anna/All Project/app-flask-test/app/__init__.py:80]
2024-12-13 22:42:02,939 INFO: Microblog startup [in /home/anna/All Project/app-flask-test/app/__init__.py:80]
2024-12-13 22:45:08,318 INFO: Microblog startup [in /home/anna/All Project/app-flask-test/app/__init__.py:80]
2024-12-13 22:45:08,792 INFO: Microblog startup [in /home/anna/All Project/app-flask-test/app/__init__.py:80]
2024-12-13 23:21:07,973 INFO: Microblog startup [in /home/anna/All Project/app-flask-test/app/__init__.py:80]
2024-12-13 23:21:30,172 INFO: Microblog startup [in /home/anna/All Project/app-flask-test/app/__init__.py:80]
2024-12-13 23:26:52,279 INFO: Microblog startup [in /home/anna/All Project/app-flask-test/app/__init__.py:80]
2024-12-13 23:28:40,252 INFO: Microblog startup [in /home/anna/All Project/app-flask-test/app/__init__.py:80]
2024-12-13 23:36:52,479 INFO: Microblog startup [in /home/anna/All Project/app-flask-test/app/__init__.py:80]
2024-12-13 23:37:53,198 INFO: Microblog startup [in /home/anna/All Project/app-flask-test/app/__init__.py:80]
2024-12-13 23:40:16,189 INFO: Microblog startup [in /home/anna/All Project/app-flask-test/app/__init__.py:80]
2024-12-13 23:43:26,031 INFO: Microblog startup [in /home/anna/All Project/app-flask-test/app/__init__.py:80]
2024-12-13 23:47:27,907 INFO: Microblog startup [in /home/anna/All Project/app-flask-test/app/__init__.py:80]
2024-12-13 23:52:45,454 INFO: Microblog startup [in /home/anna/All Project/app-flask-test/app/__init__.py:80]
2024-12-13 23:54:27,921 INFO: Microblog startup [in /home/anna/All Project/app-flask-test/app/__init__.py:80]
2024-12-13 23:55:12,050 INFO: Microblog startup [in /home/anna/All Project/app-flask-test/app/__init__.py:80]
2024-12-13 23:56:22,335 INFO: Microblog startup [in /home/anna/All Project/app-flask-test/app/__init__.py:80]
2024-12-16 16:33:28,905 INFO: Microblog startup [in /home/anna/All Project/app-flask-test/app/__init__.py:80]
2024-12-16 16:33:29,384 INFO: Microblog startup [in /home/anna/All Project/app-flask-test/app/__init__.py:80]
2024-12-17 02:45:43,855 INFO: Microblog startup [in /home/anna/All Project/app-flask-test/app/__init__.py:80]
2024-12-17 02:46:52,086 INFO: Microblog startup [in /home/anna/All Project/app-flask-test/app/__init__.py:80]
2024-12-17 02:49:34,218 INFO: Microblog startup [in /home/anna/All Project/app-flask-test/app/__init__.py:80]
2024-12-17 03:19:23,796 INFO: Microblog startup [in /home/anna/All Project/app-flask-test/app/__init__.py:80]
2024-12-17 03:23:38,646 INFO: Microblog startup [in /home/anna/All Project/app-flask-test/app/__init__.py:80]
2024-12-17 03:30:55,094 INFO: Microblog startup [in /home/anna/All Project/app-flask-test/app/__init__.py:80]
2024-12-17 03:30:55,551 INFO: Microblog startup [in /home/anna/All Project/app-flask-test/app/__init__.py:80]
2024-12-17 03:38:25,378 INFO: Microblog startup [in /home/anna/All Project/app-flask-test/app/__init__.py:80]
2024-12-17 03:38:52,432 INFO: Microblog startup [in /home/anna/All Project/app-flask-test/app/__init__.py:80]
2024-12-17 03:40:37,041 INFO: Microblog startup [in /home/anna/All Project/app-flask-test/app/__init__.py:80]
2024-12-17 03:49:37,542 INFO: Microblog startup [in /home/anna/All Project/app-flask-test/app/__init__.py:80]
2024-12-17 03:57:50,684 INFO: Microblog startup [in /home/anna/All Project/app-flask-test/app/__init__.py:80]
2024-12-17 13:05:46,031 INFO: Microblog startup [in /home/anna/All Project/app-flask-test/app/__init__.py:80]
2024-12-17 13:05:46,629 INFO: Microblog startup [in /home/anna/All Project/app-flask-test/app/__init__.py:80]
2024-12-18 14:06:17,630 INFO: Microblog startup [in /home/anna/All Project/app-flask-test/app/__init__.py:80]
2024-12-18 14:06:18,249 INFO: Microblog startup [in /home/anna/All Project/app-flask-test/app/__init__.py:80]
2024-12-18 14:43:38,744 INFO: Microblog startup [in /home/anna/All Project/app-flask-test/app/__init__.py:80]
2024-12-18 15:31:45,183 INFO: Microblog startup [in /home/anna/All Project/app-flask-test/app/__init__.py:80]
2024-12-18 15:33:50,277 INFO: Microblog startup [in /home/anna/All Project/app-flask-test/app/__init__.py:80]
2024-12-18 19:11:11,818 INFO: Microblog startup [in /home/anna/All Project/app-flask-test/app/__init__.py:80]
2024-12-18 19:12:34,267 INFO: Microblog startup [in /home/anna/All Project/app-flask-test/app/__init__.py:80]
2024-12-18 19:32:27,619 INFO: Microblog startup [in /home/anna/All Project/app-flask-test/app/__init__.py:80]
2024-12-18 19:35:49,105 INFO: Microblog startup [in /home/anna/All Project/app-flask-test/app/__init__.py:80]
2024-12-18 19:37:01,423 INFO: Microblog startup [in /home/anna/All Project/app-flask-test/app/__init__.py:80]
2024-12-18 19:44:46,108 INFO: Microblog startup [in /home/anna/All Project/app-flask-test/app/__init__.py:80]
2024-12-18 19:45:25,147 INFO: Microblog startup [in /home/anna/All Project/app-flask-test/app/__init__.py:80]
2024-12-18 23:16:27,414 INFO: Microblog startup [in /home/anna/All Project/app-flask-test/app/__init__.py:80]
2024-12-18 23:17:20,030 INFO: Microblog startup [in /home/anna/All Project/app-flask-test/app/__init__.py:80]
2024-12-18 23:20:42,623 INFO: Microblog startup [in /home/anna/All Project/app-flask-test/app/__init__.py:80]
2024-12-18 23:21:12,933 INFO: Microblog startup [in /home/anna/All Project/app-flask-test/app/__init__.py:80]
2024-12-18 23:33:32,734 INFO: Microblog startup [in /home/anna/All Project/app-flask-test/app/__init__.py:80]
2024-12-18 23:39:26,488 INFO: Microblog startup [in /home/anna/All Project/app-flask-test/app/__init__.py:80]
2024-12-18 23:39:41,243 INFO: Microblog startup [in /home/anna/All Project/app-flask-test/app/__init__.py:80]
2024-12-18 23:40:27,388 INFO: Microblog startup [in /home/anna/All Project/app-flask-test/app/__init__.py:80]
2024-12-18 23:40:47,237 INFO: Microblog startup [in /home/anna/All Project/app-flask-test/app/__init__.py:80]
2024-12-18 23:41:44,457 INFO: Microblog startup [in /home/anna/All Project/app-flask-test/app/__init__.py:80]
2024-12-18 23:43:31,114 INFO: Microblog startup [in /home/anna/All Project/app-flask-test/app/__init__.py:80]
2024-12-18 23:43:45,978 INFO: Microblog startup [in /home/anna/All Project/app-flask-test/app/__init__.py:80]
2024-12-18 23:46:03,821 INFO: Microblog startup [in /home/anna/All Project/app-flask-test/app/__init__.py:80]
2024-12-18 23:46:23,653 INFO: Microblog startup [in /home/anna/All Project/app-flask-test/app/__init__.py:80]
2024-12-18 23:48:32,637 INFO: Microblog startup [in /home/anna/All Project/app-flask-test/app/__init__.py:80]
2024-12-18 23:49:44,957 INFO: Microblog startup [in /home/anna/All Project/app-flask-test/app/__init__.py:80]
2024-12-18 23:50:00,816 INFO: Microblog startup [in /home/anna/All Project/app-flask-test/app/__init__.py:80]
