2024-12-31 22:49:16,954 INFO: Microblog startup [in /home/anna/All Project/app-flask-test/app/__init__.py:80]
2024-12-31 23:04:11,779 INFO: Microblog startup [in /home/anna/All Project/app-flask-test/app/__init__.py:80]
2024-12-31 23:05:04,691 INFO: Microblog startup [in /home/anna/All Project/app-flask-test/app/__init__.py:80]
2024-12-31 23:11:36,446 INFO: Microblog startup [in /home/anna/All Project/app-flask-test/app/__init__.py:80]
2024-12-31 23:23:22,492 INFO: Microblog startup [in /home/anna/All Project/app-flask-test/app/__init__.py:80]
2024-12-31 23:23:32,305 INFO: Microblog startup [in /home/anna/All Project/app-flask-test/app/__init__.py:80]
2024-12-31 23:25:21,373 INFO: Microblog startup [in /home/anna/All Project/app-flask-test/app/__init__.py:80]
2024-12-31 23:25:25,000 INFO: Microblog startup [in /home/anna/All Project/app-flask-test/app/__init__.py:80]
2024-12-31 23:28:16,610 INFO: Microblog startup [in /home/anna/All Project/app-flask-test/app/__init__.py:80]
2024-12-31 23:37:15,841 INFO: Microblog startup [in /home/anna/All Project/app-flask-test/app/__init__.py:80]
2024-12-31 23:37:34,498 INFO: Microblog startup [in /home/anna/All Project/app-flask-test/app/__init__.py:80]
2024-12-31 23:38:38,844 INFO: Microblog startup [in /home/anna/All Project/app-flask-test/app/__init__.py:80]
2024-12-31 23:39:25,365 INFO: Microblog startup [in /home/anna/All Project/app-flask-test/app/__init__.py:80]
2024-12-31 23:39:53,690 INFO: Microblog startup [in /home/anna/All Project/app-flask-test/app/__init__.py:80]
2024-12-31 23:41:08,439 INFO: Microblog startup [in /home/anna/All Project/app-flask-test/app/__init__.py:80]
2024-12-31 23:42:47,106 INFO: Microblog startup [in /home/anna/All Project/app-flask-test/app/__init__.py:80]
2024-12-31 23:43:29,933 INFO: Microblog startup [in /home/anna/All Project/app-flask-test/app/__init__.py:80]
2024-12-31 23:44:10,099 INFO: Microblog startup [in /home/anna/All Project/app-flask-test/app/__init__.py:80]
2024-12-31 23:44:39,525 INFO: Microblog startup [in /home/anna/All Project/app-flask-test/app/__init__.py:80]
2024-12-31 23:45:11,044 INFO: Microblog startup [in /home/anna/All Project/app-flask-test/app/__init__.py:80]
2024-12-31 23:45:39,279 INFO: Microblog startup [in /home/anna/All Project/app-flask-test/app/__init__.py:80]
2024-12-31 23:53:16,593 INFO: Microblog startup [in /home/anna/All Project/app-flask-test/app/__init__.py:80]
2024-12-31 23:53:53,522 INFO: Microblog startup [in /home/anna/All Project/app-flask-test/app/__init__.py:80]
2024-12-31 23:53:58,006 INFO: Microblog startup [in /home/anna/All Project/app-flask-test/app/__init__.py:80]
2024-12-31 23:58:30,527 INFO: Microblog startup [in /home/anna/All Project/app-flask-test/app/__init__.py:80]
2024-12-31 23:58:34,074 INFO: Microblog startup [in /home/anna/All Project/app-flask-test/app/__init__.py:80]
2025-01-01 00:00:39,043 INFO: Microblog startup [in /home/anna/All Project/app-flask-test/app/__init__.py:80]
2025-01-01 00:06:06,455 INFO: Microblog startup [in /home/anna/All Project/app-flask-test/app/__init__.py:80]
2025-01-01 00:09:16,321 INFO: Microblog startup [in /home/anna/All Project/app-flask-test/app/__init__.py:80]
2025-01-01 00:09:21,674 INFO: Microblog startup [in /home/anna/All Project/app-flask-test/app/__init__.py:80]
2025-01-01 00:13:36,856 INFO: Microblog startup [in /home/anna/All Project/app-flask-test/app/__init__.py:80]
2025-01-01 00:14:21,959 INFO: Microblog startup [in /home/anna/All Project/app-flask-test/app/__init__.py:80]
2025-01-01 00:21:12,069 INFO: Microblog startup [in /home/anna/All Project/app-flask-test/app/__init__.py:80]
2025-01-01 00:23:30,519 INFO: Microblog startup [in /home/anna/All Project/app-flask-test/app/__init__.py:80]
2025-01-01 00:24:15,478 INFO: Microblog startup [in /home/anna/All Project/app-flask-test/app/__init__.py:80]
2025-01-01 00:25:26,629 INFO: Microblog startup [in /home/anna/All Project/app-flask-test/app/__init__.py:80]
2025-01-01 00:26:00,251 INFO: Microblog startup [in /home/anna/All Project/app-flask-test/app/__init__.py:80]
2025-01-01 00:26:28,599 INFO: Microblog startup [in /home/anna/All Project/app-flask-test/app/__init__.py:80]
2025-01-01 00:27:17,512 INFO: Microblog startup [in /home/anna/All Project/app-flask-test/app/__init__.py:80]
2025-01-01 00:27:54,194 INFO: Microblog startup [in /home/anna/All Project/app-flask-test/app/__init__.py:80]
2025-01-01 00:37:38,070 INFO: Microblog startup [in /home/anna/All Project/app-flask-test/app/__init__.py:80]
2025-01-01 00:38:44,799 INFO: Microblog startup [in /home/anna/All Project/app-flask-test/app/__init__.py:80]
2025-01-01 00:39:44,295 INFO: Microblog startup [in /home/anna/All Project/app-flask-test/app/__init__.py:80]
2025-01-01 00:43:13,999 INFO: Microblog startup [in /home/anna/All Project/app-flask-test/app/__init__.py:80]
2025-01-01 01:04:07,433 INFO: Microblog startup [in /home/anna/All Project/app-flask-test/app/__init__.py:80]
2025-01-01 01:13:26,487 INFO: Microblog startup [in /home/anna/All Project/app-flask-test/app/__init__.py:80]
2025-01-01 01:13:44,212 INFO: Microblog startup [in /home/anna/All Project/app-flask-test/app/__init__.py:80]
2025-01-01 01:14:24,388 INFO: Microblog startup [in /home/anna/All Project/app-flask-test/app/__init__.py:80]
2025-01-01 01:14:48,986 INFO: Microblog startup [in /home/anna/All Project/app-flask-test/app/__init__.py:80]
2025-01-01 01:15:29,968 INFO: Microblog startup [in /home/anna/All Project/app-flask-test/app/__init__.py:80]
2025-01-01 01:16:06,397 INFO: Microblog startup [in /home/anna/All Project/app-flask-test/app/__init__.py:80]
2025-01-01 01:16:22,939 INFO: Microblog startup [in /home/anna/All Project/app-flask-test/app/__init__.py:80]
2025-01-01 01:16:53,183 INFO: Microblog startup [in /home/anna/All Project/app-flask-test/app/__init__.py:80]
2025-01-01 01:17:09,962 INFO: Microblog startup [in /home/anna/All Project/app-flask-test/app/__init__.py:80]
2025-01-01 01:17:26,197 INFO: Microblog startup [in /home/anna/All Project/app-flask-test/app/__init__.py:80]
2025-01-01 01:23:58,585 INFO: Microblog startup [in /home/anna/All Project/app-flask-test/app/__init__.py:80]
2025-01-01 01:28:16,013 INFO: Microblog startup [in /home/anna/All Project/app-flask-test/app/__init__.py:80]
2025-01-01 01:28:16,659 INFO: Microblog startup [in /home/anna/All Project/app-flask-test/app/__init__.py:80]
2025-01-01 01:28:35,731 INFO: Microblog startup [in /home/anna/All Project/app-flask-test/app/__init__.py:80]
2025-01-01 01:31:28,479 INFO: Microblog startup [in /home/anna/All Project/app-flask-test/app/__init__.py:80]
2025-01-01 01:32:12,581 INFO: Microblog startup [in /home/anna/All Project/app-flask-test/app/__init__.py:80]
2025-01-01 01:32:30,948 INFO: Microblog startup [in /home/anna/All Project/app-flask-test/app/__init__.py:80]
2025-01-01 01:33:38,734 INFO: Microblog startup [in /home/anna/All Project/app-flask-test/app/__init__.py:80]
2025-01-01 01:36:21,668 INFO: Microblog startup [in /home/anna/All Project/app-flask-test/app/__init__.py:80]
2025-01-01 01:36:47,508 INFO: Microblog startup [in /home/anna/All Project/app-flask-test/app/__init__.py:80]
2025-01-01 01:52:39,676 INFO: Microblog startup [in /home/anna/All Project/app-flask-test/app/__init__.py:80]
2025-01-01 01:53:05,536 INFO: Microblog startup [in /home/anna/All Project/app-flask-test/app/__init__.py:80]
2025-01-01 01:53:37,159 INFO: Microblog startup [in /home/anna/All Project/app-flask-test/app/__init__.py:80]
2025-01-01 01:57:34,556 INFO: Microblog startup [in /home/anna/All Project/app-flask-test/app/__init__.py:80]
2025-01-01 01:57:35,196 INFO: Microblog startup [in /home/anna/All Project/app-flask-test/app/__init__.py:80]
2025-01-01 01:58:13,429 INFO: Microblog startup [in /home/anna/All Project/app-flask-test/app/__init__.py:80]
2025-01-01 02:01:14,630 INFO: Microblog startup [in /home/anna/All Project/app-flask-test/app/__init__.py:80]
2025-01-01 02:02:30,309 INFO: Microblog startup [in /home/anna/All Project/app-flask-test/app/__init__.py:80]
2025-01-01 02:12:48,015 INFO: Microblog startup [in /home/anna/All Project/app-flask-test/app/__init__.py:80]
2025-01-01 02:13:41,390 INFO: Microblog startup [in /home/anna/All Project/app-flask-test/app/__init__.py:80]
2025-01-01 02:13:44,472 INFO: Microblog startup [in /home/anna/All Project/app-flask-test/app/__init__.py:80]
2025-01-01 02:13:51,543 INFO: Microblog startup [in /home/anna/All Project/app-flask-test/app/__init__.py:80]
2025-01-01 02:16:02,883 INFO: Microblog startup [in /home/anna/All Project/app-flask-test/app/__init__.py:80]
2025-01-01 02:18:41,768 INFO: Microblog startup [in /home/anna/All Project/app-flask-test/app/__init__.py:80]
2025-01-01 02:18:41,938 INFO: Microblog startup [in /home/anna/All Project/app-flask-test/app/__init__.py:80]
2025-01-01 02:18:58,814 INFO: Microblog startup [in /home/anna/All Project/app-flask-test/app/__init__.py:80]
2025-01-01 02:24:20,554 INFO: Microblog startup [in /home/anna/All Project/app-flask-test/app/__init__.py:80]
2025-01-01 02:28:21,363 INFO: Microblog startup [in /home/anna/All Project/app-flask-test/app/__init__.py:80]
2025-01-01 02:28:22,868 INFO: Microblog startup [in /home/anna/All Project/app-flask-test/app/__init__.py:80]
2025-01-01 02:28:32,941 INFO: Microblog startup [in /home/anna/All Project/app-flask-test/app/__init__.py:80]
2025-01-01 02:36:52,673 INFO: Microblog startup [in /home/anna/All Project/app-flask-test/app/__init__.py:80]
2025-01-01 02:36:53,614 INFO: Microblog startup [in /home/anna/All Project/app-flask-test/app/__init__.py:80]
2025-01-01 02:38:51,145 INFO: Microblog startup [in /home/anna/All Project/app-flask-test/app/__init__.py:80]
2025-01-01 02:42:19,394 INFO: Microblog startup [in /home/anna/All Project/app-flask-test/app/__init__.py:80]
2025-01-01 02:45:38,039 INFO: Microblog startup [in /home/anna/All Project/app-flask-test/app/__init__.py:80]
2025-01-01 02:46:06,161 INFO: Microblog startup [in /home/anna/All Project/app-flask-test/app/__init__.py:80]
2025-01-01 02:47:42,060 INFO: Microblog startup [in /home/anna/All Project/app-flask-test/app/__init__.py:80]
2025-01-01 02:49:00,681 INFO: Microblog startup [in /home/anna/All Project/app-flask-test/app/__init__.py:80]
