2025-01-06 18:25:14,914 INFO: Microblog startup [in /home/anna/All Project/app-flask-test/app/__init__.py:80]
2025-01-06 18:25:15,532 INFO: Microblog startup [in /home/anna/All Project/app-flask-test/app/__init__.py:80]
2025-01-06 18:25:59,725 INFO: Microblog startup [in /home/anna/All Project/app-flask-test/app/__init__.py:80]
2025-01-06 18:26:46,913 INFO: Microblog startup [in /home/anna/All Project/app-flask-test/app/__init__.py:80]
2025-01-06 18:32:06,249 INFO: Microblog startup [in /home/anna/All Project/app-flask-test/app/__init__.py:80]
2025-01-06 18:40:21,497 INFO: Microblog startup [in /home/anna/All Project/app-flask-test/app/__init__.py:80]
2025-01-06 18:46:32,128 INFO: Microblog startup [in /home/anna/All Project/app-flask-test/app/__init__.py:80]
2025-01-06 19:58:48,633 INFO: Microblog startup [in /home/anna/All Project/app-flask-test/app/__init__.py:80]
2025-01-06 19:58:49,255 INFO: Microblog startup [in /home/anna/All Project/app-flask-test/app/__init__.py:80]
2025-01-06 19:59:27,049 INFO: Microblog startup [in /home/anna/All Project/app-flask-test/app/__init__.py:80]
2025-01-06 19:59:27,660 INFO: Microblog startup [in /home/anna/All Project/app-flask-test/app/__init__.py:80]
2025-01-06 20:03:26,463 INFO: Microblog startup [in /home/anna/All Project/app-flask-test/app/__init__.py:80]
2025-01-06 20:03:27,066 INFO: Microblog startup [in /home/anna/All Project/app-flask-test/app/__init__.py:80]
2025-01-07 22:40:24,541 INFO: Microblog startup [in /home/anna/All Project/app-flask-test/app/__init__.py:80]
2025-01-07 22:40:25,259 INFO: Microblog startup [in /home/anna/All Project/app-flask-test/app/__init__.py:80]
2025-01-07 22:49:20,472 INFO: Microblog startup [in /home/anna/All Project/app-flask-test/app/__init__.py:80]
2025-01-08 16:53:04,205 INFO: Microblog startup [in /home/anna/All Project/app-flask-test/app/__init__.py:80]
2025-01-08 16:53:04,887 INFO: Microblog startup [in /home/anna/All Project/app-flask-test/app/__init__.py:80]
2025-01-08 16:57:52,610 INFO: Microblog startup [in /home/anna/All Project/app-flask-test/app/__init__.py:80]
2025-01-08 17:07:12,007 INFO: Microblog startup [in /home/anna/All Project/app-flask-test/app/__init__.py:80]
2025-01-08 18:02:27,399 INFO: Microblog startup [in /home/anna/All Project/app-flask-test/app/__init__.py:80]
2025-01-08 18:02:28,002 INFO: Microblog startup [in /home/anna/All Project/app-flask-test/app/__init__.py:80]
2025-01-08 18:03:27,389 INFO: Microblog startup [in /home/anna/All Project/app-flask-test/app/__init__.py:80]
2025-01-08 18:04:14,736 INFO: Microblog startup [in /home/anna/All Project/app-flask-test/app/__init__.py:80]
2025-01-08 18:24:11,333 INFO: Microblog startup [in /home/anna/All Project/app-flask-test/app/__init__.py:80]
2025-01-08 18:24:11,957 INFO: Microblog startup [in /home/anna/All Project/app-flask-test/app/__init__.py:80]
2025-01-08 18:58:03,410 INFO: Microblog startup [in /home/anna/All Project/app-flask-test/app/__init__.py:80]
2025-01-08 18:58:04,067 INFO: Microblog startup [in /home/anna/All Project/app-flask-test/app/__init__.py:80]
2025-01-08 18:58:50,300 INFO: Microblog startup [in /home/anna/All Project/app-flask-test/app/__init__.py:80]
2025-01-08 18:59:22,403 INFO: Microblog startup [in /home/anna/All Project/app-flask-test/app/__init__.py:80]
2025-01-08 19:08:14,983 INFO: Microblog startup [in /home/anna/All Project/app-flask-test/app/__init__.py:80]
2025-01-08 19:09:42,677 INFO: Microblog startup [in /home/anna/All Project/app-flask-test/app/__init__.py:80]
2025-01-08 19:10:17,931 INFO: Microblog startup [in /home/anna/All Project/app-flask-test/app/__init__.py:80]
2025-01-08 21:22:30,671 INFO: Microblog startup [in /home/anna/All Project/app-flask-test/app/__init__.py:80]
2025-01-08 21:25:18,661 INFO: Microblog startup [in /home/anna/All Project/app-flask-test/app/__init__.py:80]
2025-01-08 21:25:19,301 INFO: Microblog startup [in /home/anna/All Project/app-flask-test/app/__init__.py:80]
2025-01-08 21:46:01,752 INFO: Microblog startup [in /home/anna/All Project/app-flask-test/app/__init__.py:80]
2025-01-08 23:18:24,173 INFO: Microblog startup [in /home/anna/All Project/app-flask-test/app/__init__.py:80]
2025-01-08 23:19:15,814 INFO: Microblog startup [in /home/anna/All Project/app-flask-test/app/__init__.py:80]
2025-01-08 23:24:20,352 INFO: Microblog startup [in /home/anna/All Project/app-flask-test/app/__init__.py:80]
2025-01-08 23:26:42,873 INFO: Microblog startup [in /home/anna/All Project/app-flask-test/app/__init__.py:80]
2025-01-08 23:27:07,960 INFO: Microblog startup [in /home/anna/All Project/app-flask-test/app/__init__.py:80]
2025-01-08 23:27:30,346 INFO: Microblog startup [in /home/anna/All Project/app-flask-test/app/__init__.py:80]
2025-01-08 23:56:41,094 INFO: Microblog startup [in /home/anna/All Project/app-flask-test/app/__init__.py:80]
2025-01-08 23:57:15,434 INFO: Microblog startup [in /home/anna/All Project/app-flask-test/app/__init__.py:80]
2025-01-09 00:01:17,498 INFO: Microblog startup [in /home/anna/All Project/app-flask-test/app/__init__.py:80]
2025-01-09 00:01:49,800 INFO: Microblog startup [in /home/anna/All Project/app-flask-test/app/__init__.py:80]
2025-01-09 00:03:02,395 INFO: Microblog startup [in /home/anna/All Project/app-flask-test/app/__init__.py:80]
2025-01-09 00:17:44,904 INFO: Microblog startup [in /home/anna/All Project/app-flask-test/app/__init__.py:80]
2025-01-09 00:17:45,563 INFO: Microblog startup [in /home/anna/All Project/app-flask-test/app/__init__.py:80]
2025-01-09 13:03:00,356 INFO: Microblog startup [in /home/anna/All Project/app-flask-test/app/__init__.py:80]
2025-01-09 13:03:02,441 INFO: Microblog startup [in /home/anna/All Project/app-flask-test/app/__init__.py:80]
2025-01-09 14:34:41,961 INFO: Microblog startup [in /home/anna/All Project/app-flask-test/app/__init__.py:80]
2025-01-09 14:35:19,539 INFO: Microblog startup [in /home/anna/All Project/app-flask-test/app/__init__.py:80]
2025-01-09 21:20:06,092 INFO: Microblog startup [in /home/anna/All Project/app-flask-test/app/__init__.py:80]
2025-01-09 21:20:06,710 INFO: Microblog startup [in /home/anna/All Project/app-flask-test/app/__init__.py:80]
2025-01-10 01:13:43,086 INFO: Microblog startup [in /home/anna/All Project/app-flask-test/app/__init__.py:80]
2025-01-10 01:13:43,690 INFO: Microblog startup [in /home/anna/All Project/app-flask-test/app/__init__.py:80]
2025-01-10 18:45:47,004 INFO: Microblog startup [in /home/anna/All Project/app-flask-test/app/__init__.py:80]
2025-01-10 18:45:47,680 INFO: Microblog startup [in /home/anna/All Project/app-flask-test/app/__init__.py:80]
2025-01-10 18:57:44,284 INFO: Microblog startup [in /home/anna/All Project/app-flask-test/app/__init__.py:80]
2025-01-10 18:57:44,951 INFO: Microblog startup [in /home/anna/All Project/app-flask-test/app/__init__.py:80]
2025-02-03 18:08:36,477 INFO: Microblog startup [in /home/anna/All Project/app-flask-test/app/__init__.py:80]
2025-02-03 18:08:37,155 INFO: Microblog startup [in /home/anna/All Project/app-flask-test/app/__init__.py:80]
2025-02-18 11:57:54,316 INFO: Microblog startup [in /home/anna/All Project/app-flask-test/app/__init__.py:80]
2025-02-18 11:57:55,169 INFO: Microblog startup [in /home/anna/All Project/app-flask-test/app/__init__.py:80]
2025-02-19 18:48:38,259 INFO: Microblog startup [in /home/anna/All Project/app-flask-test/app/__init__.py:80]
2025-02-19 18:48:39,094 INFO: Microblog startup [in /home/anna/All Project/app-flask-test/app/__init__.py:80]
2025-03-06 22:51:45,307 INFO: Microblog startup [in /home/anna/All Project/app-flask-test/app/__init__.py:80]
2025-03-06 22:51:45,979 INFO: Microblog startup [in /home/anna/All Project/app-flask-test/app/__init__.py:80]
2025-03-06 22:56:14,297 INFO: Microblog startup [in /home/anna/All Project/app-flask-test/app/__init__.py:80]
2025-03-06 23:24:24,470 INFO: Microblog startup [in /home/anna/All Project/app-flask-test/app/__init__.py:80]
2025-03-06 23:25:07,800 INFO: Microblog startup [in /home/anna/All Project/app-flask-test/app/__init__.py:80]
2025-03-06 23:26:35,005 INFO: Microblog startup [in /home/anna/All Project/app-flask-test/app/__init__.py:80]
2025-03-06 23:34:25,726 INFO: Microblog startup [in /home/anna/All Project/app-flask-test/app/__init__.py:80]
2025-03-06 23:35:08,169 INFO: Microblog startup [in /home/anna/All Project/app-flask-test/app/__init__.py:80]
2025-03-07 00:15:12,251 INFO: Microblog startup [in /home/anna/All Project/app-flask-test/app/__init__.py:80]
2025-03-07 00:41:59,199 INFO: Microblog startup [in /home/anna/All Project/app-flask-test/app/__init__.py:80]
2025-03-07 00:41:59,930 INFO: Microblog startup [in /home/anna/All Project/app-flask-test/app/__init__.py:80]
2025-03-07 00:42:06,018 INFO: Microblog startup [in /home/anna/All Project/app-flask-test/app/__init__.py:80]
2025-03-07 00:42:07,207 INFO: Microblog startup [in /home/anna/All Project/app-flask-test/app/__init__.py:80]
2025-03-07 18:04:59,461 INFO: Microblog startup [in /home/anna/All Project/app-flask-test/app/__init__.py:80]
2025-03-07 18:05:00,227 INFO: Microblog startup [in /home/anna/All Project/app-flask-test/app/__init__.py:80]
2025-03-07 18:17:55,268 INFO: Microblog startup [in /home/anna/All Project/app-flask-test/app/__init__.py:80]
2025-03-07 18:19:49,412 INFO: Microblog startup [in /home/anna/All Project/app-flask-test/app/__init__.py:80]
2025-03-07 18:27:57,944 INFO: Microblog startup [in /home/anna/All Project/app-flask-test/app/__init__.py:80]
2025-03-07 18:31:10,389 INFO: Microblog startup [in /home/anna/All Project/app-flask-test/app/__init__.py:80]
2025-03-07 18:32:09,661 INFO: Microblog startup [in /home/anna/All Project/app-flask-test/app/__init__.py:80]
2025-03-07 18:33:42,482 INFO: Microblog startup [in /home/anna/All Project/app-flask-test/app/__init__.py:80]
2025-03-07 18:36:14,901 INFO: Microblog startup [in /home/anna/All Project/app-flask-test/app/__init__.py:80]
2025-03-07 18:37:01,168 INFO: Microblog startup [in /home/anna/All Project/app-flask-test/app/__init__.py:80]
2025-03-07 18:41:08,143 INFO: Microblog startup [in /home/anna/All Project/app-flask-test/app/__init__.py:80]
2025-03-07 18:44:05,580 INFO: Microblog startup [in /home/anna/All Project/app-flask-test/app/__init__.py:80]
